Memory_Controller/Memory_Controllers/WUPR/WUPR/03_GATE/WUPR_SYN.vcd
$date
	Thu Jul 17 19:39:33 2025

$end
$version
	Chronologic Simulation VCS Release T-2022.06_Full64
$end
$timescale
	1ps
$end
$scope module TESTBED $end
$var reg 1 ! clk $end
$var reg 1 " rst_n $end
$var reg 1 # Rt_write $end
$var reg 1 $ to_refresh $end
$var reg 16 % Ra [15:0] $end
$var reg 1 & dref $end
$scope module u_WUPR $end
$var wire 16 ' Ra [15:0] $end
$var wire 1 ( clk $end
$var wire 1 ) rst_n $end
$var wire 1 * Rt_write $end
$var wire 1 + to_refresh $end
$var wire 1 , dref $end
$var wire 1 - N98 $end
$var wire 1 . N99 $end
$var wire 1 / N100 $end
$var wire 1 0 N101 $end
$var wire 1 1 N102 $end
$var wire 1 2 N103 $end
$var wire 1 3 N104 $end
$var wire 1 4 N105 $end
$var wire 1 5 N106 $end
$var wire 1 6 N107 $end
$var wire 1 7 N108 $end
$var wire 1 8 N109 $end
$var wire 1 9 N110 $end
$var wire 1 : N111 $end
$var wire 1 ; N112 $end
$var wire 1 < n507 $end
$var wire 1 = n508 $end
$var wire 1 > n509 $end
$var wire 1 ? n510 $end
$var wire 1 @ n511 $end
$var wire 1 A n512 $end
$var wire 1 B n513 $end
$var wire 1 C n514 $end
$var wire 1 D n515 $end
$var wire 1 E n516 $end
$var wire 1 F n517 $end
$var wire 1 G n518 $end
$var wire 1 H n519 $end
$var wire 1 I n520 $end
$var wire 1 J n521 $end
$var wire 1 K n522 $end
$var wire 1 L n523 $end
$var wire 1 M n524 $end
$var wire 1 N n525 $end
$var wire 1 O n526 $end
$var wire 1 P n527 $end
$var wire 1 Q n528 $end
$var wire 1 R n529 $end
$var wire 1 S n530 $end
$var wire 1 T n531 $end
$var wire 1 U n532 $end
$var wire 1 V n533 $end
$var wire 1 W n534 $end
$var wire 1 X n535 $end
$var wire 1 Y n536 $end
$var wire 1 Z n537 $end
$var wire 1 [ n538 $end
$var wire 1 \ n539 $end
$var wire 1 ] n540 $end
$var wire 1 ^ n541 $end
$var wire 1 _ n542 $end
$var wire 1 ` n543 $end
$var wire 1 a n544 $end
$var wire 1 b n545 $end
$var wire 1 c n546 $end
$var wire 1 d n547 $end
$var wire 1 e n548 $end
$var wire 1 f n549 $end
$var wire 1 g n550 $end
$var wire 1 h n551 $end
$var wire 1 i n552 $end
$var wire 1 j n553 $end
$var wire 1 k n554 $end
$var wire 1 l n555 $end
$var wire 1 m n556 $end
$var wire 1 n n557 $end
$var wire 1 o n558 $end
$var wire 1 p n559 $end
$var wire 1 q n560 $end
$var wire 1 r n561 $end
$var wire 1 s n562 $end
$var wire 1 t n563 $end
$var wire 1 u n564 $end
$var wire 1 v n565 $end
$var wire 1 w n566 $end
$var wire 1 x n567 $end
$var wire 1 y n568 $end
$var wire 1 z n569 $end
$var wire 1 { n570 $end
$var wire 1 | n571 $end
$var wire 1 } n572 $end
$var wire 1 ~ n573 $end
$var wire 1 !! n574 $end
$var wire 1 "! n575 $end
$var wire 1 #! n576 $end
$var wire 1 $! n577 $end
$var wire 1 %! n578 $end
$var wire 1 &! n579 $end
$var wire 1 '! n580 $end
$var wire 1 (! n581 $end
$var wire 1 )! n582 $end
$var wire 1 *! n583 $end
$var wire 1 +! n584 $end
$var wire 1 ,! n585 $end
$var wire 1 -! n586 $end
$var wire 1 .! n587 $end
$var wire 1 /! n588 $end
$var wire 1 0! n589 $end
$var wire 1 1! n590 $end
$var wire 1 2! n591 $end
$var wire 1 3! n592 $end
$var wire 1 4! n593 $end
$var wire 1 5! n594 $end
$var wire 1 6! n595 $end
$var wire 1 7! n596 $end
$var wire 1 8! n597 $end
$var wire 1 9! n598 $end
$var wire 1 :! n599 $end
$var wire 1 ;! n600 $end
$var wire 1 <! n601 $end
$var wire 1 =! n602 $end
$var wire 1 >! n603 $end
$var wire 1 ?! n604 $end
$var wire 1 @! n605 $end
$var wire 1 A! n606 $end
$var wire 1 B! n607 $end
$var wire 1 C! n608 $end
$var wire 1 D! n609 $end
$var wire 1 E! n610 $end
$var wire 1 F! n611 $end
$var wire 1 G! n612 $end
$var wire 1 H! n613 $end
$var wire 1 I! n614 $end
$var wire 1 J! n615 $end
$var wire 1 K! n616 $end
$var wire 1 L! n617 $end
$var wire 1 M! n618 $end
$var wire 1 N! n619 $end
$var wire 1 O! n620 $end
$var wire 1 P! n621 $end
$var wire 1 Q! n622 $end
$var wire 1 R! n623 $end
$var wire 1 S! n624 $end
$var wire 1 T! n625 $end
$var wire 1 U! n626 $end
$var wire 1 V! n627 $end
$var wire 1 W! n628 $end
$var wire 1 X! n629 $end
$var wire 1 Y! n630 $end
$var wire 1 Z! n631 $end
$var wire 1 [! n632 $end
$var wire 1 \! n633 $end
$var wire 1 ]! n634 $end
$var wire 1 ^! n635 $end
$var wire 1 _! n636 $end
$var wire 1 `! n637 $end
$var wire 1 a! n638 $end
$var wire 1 b! n639 $end
$var wire 1 c! n640 $end
$var wire 1 d! n641 $end
$var wire 1 e! n642 $end
$var wire 1 f! n643 $end
$var wire 1 g! n644 $end
$var wire 1 h! n645 $end
$var wire 1 i! n646 $end
$var wire 1 j! n647 $end
$var wire 1 k! n648 $end
$var wire 1 l! n649 $end
$var wire 1 m! n650 $end
$var wire 1 n! n651 $end
$var wire 1 o! n652 $end
$var wire 1 p! n653 $end
$var wire 1 q! n654 $end
$var wire 1 r! n655 $end
$var wire 1 s! n656 $end
$var wire 1 t! n657 $end
$var wire 1 u! n658 $end
$var wire 1 v! n659 $end
$var wire 1 w! n660 $end
$var wire 1 x! n661 $end
$var wire 1 y! n662 $end
$var wire 1 z! n663 $end
$var wire 1 {! n664 $end
$var wire 1 |! n665 $end
$var wire 1 }! n666 $end
$var wire 1 ~! n667 $end
$var wire 1 !" n668 $end
$var wire 1 "" n669 $end
$var wire 1 #" n670 $end
$var wire 1 $" n671 $end
$var wire 1 %" n672 $end
$var wire 1 &" n673 $end
$var wire 1 '" n674 $end
$var wire 1 (" n675 $end
$var wire 1 )" n676 $end
$var wire 1 *" n677 $end
$var wire 1 +" n678 $end
$var wire 1 ," n679 $end
$var wire 1 -" n680 $end
$var wire 1 ." n681 $end
$var wire 1 /" n682 $end
$var wire 1 0" n683 $end
$var wire 1 1" n684 $end
$var wire 1 2" n685 $end
$var wire 1 3" n686 $end
$var wire 1 4" n687 $end
$var wire 1 5" n688 $end
$var wire 1 6" n689 $end
$var wire 1 7" n690 $end
$var wire 1 8" n691 $end
$var wire 1 9" n692 $end
$var wire 1 :" n693 $end
$var wire 1 ;" n694 $end
$var wire 1 <" n695 $end
$var wire 1 =" n696 $end
$var wire 1 >" n697 $end
$var wire 1 ?" n698 $end
$var wire 1 @" n699 $end
$var wire 1 A" n700 $end
$var wire 1 B" n701 $end
$var wire 1 C" n702 $end
$var wire 1 D" n703 $end
$var wire 1 E" n704 $end
$var wire 1 F" n705 $end
$var wire 1 G" n706 $end
$var wire 1 H" n707 $end
$var wire 1 I" n708 $end
$var wire 1 J" n709 $end
$var wire 1 K" n710 $end
$var wire 1 L" n711 $end
$var wire 1 M" n712 $end
$var wire 1 N" n713 $end
$var wire 1 O" n714 $end
$var wire 1 P" n715 $end
$var wire 1 Q" n716 $end
$var wire 1 R" n717 $end
$var wire 1 S" n718 $end
$var wire 1 T" n719 $end
$var wire 1 U" n720 $end
$var wire 1 V" n721 $end
$var wire 1 W" n722 $end
$var wire 1 X" n723 $end
$var wire 1 Y" n724 $end
$var wire 1 Z" n725 $end
$var wire 1 [" n726 $end
$var wire 1 \" n727 $end
$var wire 1 ]" n728 $end
$var wire 1 ^" n729 $end
$var wire 1 _" n730 $end
$var wire 1 `" n731 $end
$var wire 1 a" n732 $end
$var wire 1 b" n733 $end
$var wire 1 c" n734 $end
$var wire 1 d" n735 $end
$var wire 1 e" n736 $end
$var wire 1 f" n737 $end
$var wire 1 g" n738 $end
$var wire 1 h" n739 $end
$var wire 1 i" n740 $end
$var wire 1 j" n741 $end
$var wire 1 k" n742 $end
$var wire 1 l" n743 $end
$var wire 1 m" n744 $end
$var wire 1 n" n745 $end
$var wire 1 o" n746 $end
$var wire 1 p" n747 $end
$var wire 1 q" n748 $end
$var wire 1 r" n749 $end
$var wire 1 s" n750 $end
$var wire 1 t" n751 $end
$var wire 1 u" n752 $end
$var wire 1 v" n753 $end
$var wire 1 w" n754 $end
$var wire 1 x" n755 $end
$var wire 1 y" n756 $end
$var wire 1 z" n757 $end
$var wire 1 {" n758 $end
$var wire 1 |" n759 $end
$var wire 1 }" n760 $end
$var wire 1 ~" n761 $end
$var wire 1 !# n762 $end
$var wire 1 "# n763 $end
$var wire 1 ## n764 $end
$var wire 1 $# n765 $end
$var wire 1 %# n766 $end
$var wire 1 &# n767 $end
$var wire 1 '# n768 $end
$var wire 1 (# n769 $end
$var wire 1 )# n770 $end
$var wire 1 *# n771 $end
$var wire 1 +# n772 $end
$var wire 1 ,# n773 $end
$var wire 1 -# n774 $end
$var wire 1 .# n775 $end
$var wire 1 /# n776 $end
$var wire 1 0# n777 $end
$var wire 1 1# n778 $end
$var wire 1 2# n779 $end
$var wire 1 3# n780 $end
$var wire 1 4# n781 $end
$var wire 1 5# n782 $end
$var wire 1 6# n783 $end
$var wire 1 7# n784 $end
$var wire 1 8# n785 $end
$var wire 1 9# n786 $end
$var wire 1 :# n787 $end
$var wire 1 ;# n788 $end
$var wire 1 <# n789 $end
$var wire 1 =# n790 $end
$var wire 1 ># n791 $end
$var wire 1 ?# n792 $end
$var wire 1 @# n793 $end
$var wire 1 A# n794 $end
$var wire 1 B# n795 $end
$var wire 1 C# n796 $end
$var wire 1 D# n797 $end
$var wire 1 E# n798 $end
$var wire 1 F# n799 $end
$var wire 1 G# n800 $end
$var wire 1 H# n801 $end
$var wire 1 I# n802 $end
$var wire 1 J# n803 $end
$var wire 1 K# n804 $end
$var wire 1 L# n805 $end
$var wire 1 M# n806 $end
$var wire 1 N# n807 $end
$var wire 1 O# n808 $end
$var wire 1 P# n809 $end
$var wire 1 Q# n810 $end
$var wire 1 R# n811 $end
$var wire 1 S# n812 $end
$var wire 1 T# n813 $end
$var wire 1 U# n814 $end
$var wire 1 V# n815 $end
$var wire 1 W# n816 $end
$var wire 1 X# n817 $end
$var wire 1 Y# n818 $end
$var wire 1 Z# n819 $end
$var wire 1 [# n820 $end
$var wire 1 \# n821 $end
$var wire 1 ]# n822 $end
$var wire 1 ^# n823 $end
$var wire 1 _# n824 $end
$var wire 1 `# n825 $end
$var wire 1 a# n826 $end
$var wire 1 b# n827 $end
$var wire 1 c# n828 $end
$var wire 1 d# n829 $end
$var wire 1 e# n830 $end
$var wire 1 f# n831 $end
$var wire 1 g# n832 $end
$var wire 1 h# n833 $end
$var wire 1 i# n834 $end
$var wire 1 j# n835 $end
$var wire 1 k# n836 $end
$var wire 1 l# n837 $end
$var wire 1 m# n838 $end
$var wire 1 n# n839 $end
$var wire 1 o# n840 $end
$var wire 1 p# n841 $end
$var wire 1 q# n842 $end
$var wire 1 r# n843 $end
$var wire 1 s# n844 $end
$var wire 1 t# n845 $end
$var wire 1 u# n846 $end
$var wire 1 v# n847 $end
$var wire 1 w# n848 $end
$var wire 1 x# n849 $end
$var wire 1 y# n850 $end
$var wire 1 z# n851 $end
$var wire 1 {# n852 $end
$var wire 1 |# n853 $end
$var wire 1 }# n854 $end
$var wire 1 ~# n855 $end
$var wire 1 !$ n856 $end
$var wire 1 "$ n857 $end
$var wire 1 #$ n858 $end
$var wire 1 $$ n859 $end
$var wire 1 %$ n860 $end
$var wire 1 &$ n861 $end
$var wire 1 '$ n862 $end
$var wire 1 ($ n863 $end
$var wire 1 )$ n864 $end
$var wire 1 *$ n865 $end
$var wire 1 +$ n866 $end
$var wire 1 ,$ n867 $end
$var wire 1 -$ n868 $end
$var wire 1 .$ n869 $end
$var wire 1 /$ n870 $end
$var wire 1 0$ n871 $end
$var wire 1 1$ n872 $end
$var wire 1 2$ n873 $end
$var wire 1 3$ n874 $end
$var wire 1 4$ n875 $end
$var wire 1 5$ n876 $end
$var wire 1 6$ n877 $end
$var wire 1 7$ n878 $end
$var wire 1 8$ n879 $end
$var wire 1 9$ n880 $end
$var wire 1 :$ n881 $end
$var wire 1 ;$ n882 $end
$var wire 1 <$ n883 $end
$var wire 1 =$ n884 $end
$var wire 1 >$ n885 $end
$var wire 1 ?$ n886 $end
$var wire 1 @$ n887 $end
$var wire 1 A$ n888 $end
$var wire 1 B$ n889 $end
$var wire 1 C$ n890 $end
$var wire 1 D$ n891 $end
$var wire 1 E$ n892 $end
$var wire 1 F$ n893 $end
$var wire 1 G$ n894 $end
$var wire 1 H$ n895 $end
$var wire 1 I$ n896 $end
$var wire 1 J$ n897 $end
$var wire 1 K$ n898 $end
$var wire 1 L$ n899 $end
$var wire 1 M$ n900 $end
$var wire 1 N$ n901 $end
$var wire 1 O$ n902 $end
$var wire 1 P$ n903 $end
$var wire 1 Q$ n904 $end
$var wire 1 R$ n905 $end
$var wire 1 S$ n906 $end
$var wire 1 T$ n907 $end
$var wire 1 U$ n908 $end
$var wire 1 V$ n909 $end
$var wire 1 W$ n910 $end
$var wire 1 X$ n911 $end
$var wire 1 Y$ n912 $end
$var wire 1 Z$ n913 $end
$var wire 1 [$ n914 $end
$var wire 1 \$ n915 $end
$var wire 1 ]$ n916 $end
$var wire 1 ^$ n917 $end
$var wire 1 _$ n918 $end
$var wire 1 `$ n919 $end
$var wire 1 a$ n920 $end
$var wire 1 b$ n921 $end
$var wire 1 c$ n922 $end
$var wire 1 d$ n923 $end
$var wire 1 e$ n924 $end
$var wire 1 f$ n925 $end
$var wire 1 g$ n926 $end
$var wire 1 h$ n927 $end
$var wire 1 i$ n928 $end
$var wire 1 j$ n929 $end
$var wire 1 k$ n930 $end
$var wire 1 l$ n931 $end
$var wire 1 m$ n932 $end
$var wire 1 n$ n933 $end
$var wire 1 o$ n934 $end
$var wire 1 p$ n935 $end
$var wire 1 q$ n936 $end
$var wire 1 r$ n937 $end
$var wire 1 s$ n938 $end
$var wire 1 t$ n939 $end
$var wire 1 u$ n940 $end
$var wire 1 v$ n941 $end
$var wire 1 w$ n942 $end
$var wire 1 x$ n943 $end
$var wire 1 y$ n944 $end
$var wire 1 z$ n945 $end
$var wire 1 {$ n946 $end
$var wire 1 |$ n947 $end
$var wire 1 }$ n948 $end
$var wire 1 ~$ n949 $end
$var wire 1 !% n950 $end
$var wire 1 "% n951 $end
$var wire 1 #% n952 $end
$var wire 1 $% n953 $end
$var wire 1 %% n954 $end
$var wire 1 &% n955 $end
$var wire 1 '% n956 $end
$var wire 1 (% n957 $end
$var wire 1 )% n958 $end
$var wire 1 *% n959 $end
$var wire 1 +% n960 $end
$var wire 1 ,% n961 $end
$var wire 1 -% n962 $end
$var wire 1 .% n963 $end
$var wire 1 /% n964 $end
$var wire 1 0% n965 $end
$var wire 1 1% n966 $end
$var wire 1 2% n967 $end
$var wire 1 3% n968 $end
$var wire 1 4% n969 $end
$var wire 1 5% n970 $end
$var wire 1 6% n971 $end
$var wire 1 7% n972 $end
$var wire 1 8% n973 $end
$var wire 1 9% n974 $end
$var wire 1 :% n975 $end
$var wire 1 ;% n976 $end
$var wire 1 <% n977 $end
$var wire 1 =% n978 $end
$var wire 1 >% n979 $end
$var wire 1 ?% n980 $end
$var wire 1 @% n981 $end
$var wire 1 A% n982 $end
$var wire 1 B% n983 $end
$var wire 1 C% n984 $end
$var wire 1 D% n985 $end
$var wire 1 E% n986 $end
$var wire 1 F% n987 $end
$var wire 1 G% n988 $end
$var wire 1 H% n989 $end
$var wire 1 I% n990 $end
$var wire 1 J% n991 $end
$var wire 1 K% n992 $end
$var wire 1 L% n993 $end
$var wire 1 M% n994 $end
$var wire 1 N% n995 $end
$var wire 1 O% n996 $end
$var wire 1 P% n997 $end
$var wire 1 Q% n998 $end
$var wire 1 R% n999 $end
$var wire 1 S% n1000 $end
$var wire 1 T% n1001 $end
$var wire 1 U% n1002 $end
$var wire 1 V% n1003 $end
$var wire 1 W% n1004 $end
$var wire 1 X% n1005 $end
$var wire 1 Y% n1006 $end
$var wire 1 Z% n1007 $end
$var wire 1 [% n1008 $end
$var wire 1 \% n1009 $end
$var wire 1 ]% n1010 $end
$var wire 1 ^% n1011 $end
$var wire 1 _% n1012 $end
$var wire 1 `% n1013 $end
$var wire 1 a% n1014 $end
$var wire 1 b% n1015 $end
$var wire 1 c% n1016 $end
$var wire 1 d% n1017 $end
$var wire 1 e% n1018 $end
$var wire 1 f% n1019 $end
$var wire 1 g% n1020 $end
$var wire 1 h% n1021 $end
$var wire 1 i% n1022 $end
$var wire 1 j% n1023 $end
$var wire 1 k% n1024 $end
$var wire 1 l% n1025 $end
$var wire 1 m% n1026 $end
$var wire 1 n% n1027 $end
$var wire 1 o% n1028 $end
$var wire 1 p% n1029 $end
$var wire 1 q% n1030 $end
$var wire 1 r% n1031 $end
$var wire 1 s% n1032 $end
$var wire 1 t% n1033 $end
$var wire 1 u% n1034 $end
$var wire 1 v% n1035 $end
$var wire 1 w% n1036 $end
$var wire 1 x% n1037 $end
$var wire 1 y% n1038 $end
$var wire 1 z% n1039 $end
$var wire 1 {% n1040 $end
$var wire 1 |% n1041 $end
$var wire 1 }% n1042 $end
$var wire 1 ~% n1043 $end
$var wire 1 !& n1044 $end
$var wire 1 "& n1045 $end
$var wire 1 #& n1046 $end
$var wire 1 $& n1047 $end
$var wire 1 %& n1048 $end
$var wire 1 && n1049 $end
$var wire 1 '& n1050 $end
$var wire 1 (& n1051 $end
$var wire 1 )& n1052 $end
$var wire 1 *& n1053 $end
$var wire 1 +& n1054 $end
$var wire 1 ,& n1055 $end
$var wire 1 -& n1056 $end
$var wire 1 .& n1057 $end
$var wire 1 /& n1058 $end
$var wire 1 0& n1059 $end
$var wire 1 1& n1060 $end
$var wire 1 2& n1061 $end
$var wire 1 3& n1062 $end
$var wire 1 4& n1063 $end
$var wire 1 5& n1064 $end
$var wire 1 6& n1065 $end
$var wire 1 7& n1066 $end
$var wire 1 8& n1067 $end
$var wire 1 9& n1068 $end
$var wire 1 :& n1069 $end
$var wire 1 ;& n1070 $end
$var wire 1 <& n1071 $end
$var wire 1 =& n1072 $end
$var wire 1 >& n1073 $end
$var wire 1 ?& n1074 $end
$var wire 1 @& n1075 $end
$var wire 1 A& n1076 $end
$var wire 1 B& n1077 $end
$var wire 1 C& n1078 $end
$var wire 1 D& n1079 $end
$var wire 1 E& n1080 $end
$var wire 1 F& n1081 $end
$var wire 1 G& n1082 $end
$var wire 1 H& n1083 $end
$var wire 1 I& n1084 $end
$var wire 1 J& n1085 $end
$var wire 1 K& n1086 $end
$var wire 1 L& n1087 $end
$var wire 1 M& n1088 $end
$var wire 1 N& n1089 $end
$var wire 1 O& n1090 $end
$var wire 1 P& n1091 $end
$var wire 1 Q& n1092 $end
$var wire 1 R& n1093 $end
$var wire 1 S& n1094 $end
$var wire 1 T& n1095 $end
$var wire 1 U& n1096 $end
$var wire 1 V& n1097 $end
$var wire 1 W& n1098 $end
$var wire 1 X& n1099 $end
$var wire 1 Y& n1100 $end
$var wire 1 Z& n1101 $end
$var wire 1 [& n1102 $end
$var wire 1 \& n1103 $end
$var wire 1 ]& n1104 $end
$var wire 1 ^& n1105 $end
$var wire 1 _& n1106 $end
$var wire 1 `& n1107 $end
$var wire 1 a& n1108 $end
$var wire 1 b& n1109 $end
$var wire 1 c& n1110 $end
$var wire 1 d& n1111 $end
$var wire 1 e& n1112 $end
$var wire 1 f& n1113 $end
$var wire 1 g& n1114 $end
$var wire 1 h& n1115 $end
$var wire 1 i& n1116 $end
$var wire 1 j& n1117 $end
$var wire 1 k& n1118 $end
$var wire 1 l& n1119 $end
$var wire 1 m& n1120 $end
$var wire 1 n& n1121 $end
$var wire 1 o& n1122 $end
$var wire 1 p& n1123 $end
$var wire 1 q& n1124 $end
$var wire 1 r& n1125 $end
$var wire 1 s& n1126 $end
$var wire 1 t& n1127 $end
$var wire 1 u& n1128 $end
$var wire 1 v& n1129 $end
$var wire 1 w& n1130 $end
$var wire 1 x& n1131 $end
$var wire 1 y& n1132 $end
$var wire 1 z& n1133 $end
$var wire 1 {& n1134 $end
$var wire 1 |& n1135 $end
$var wire 1 }& n1136 $end
$var wire 1 ~& n1137 $end
$var wire 1 !' n1138 $end
$var wire 1 "' n1139 $end
$var wire 1 #' n1140 $end
$var wire 1 $' n1141 $end
$var wire 4 %' Ri_refresh [3:0] $end
$var wire 12 &' r_mod [11:0] $end
$var wire 192 '' SPRi [191:0] $end
$upscope $end
$scope module I_PATTERN $end
$var reg 1 (' clk $end
$var reg 1 )' rst_n $end
$var reg 1 *' Rt_write $end
$var reg 1 +' to_refresh $end
$var reg 16 ,' Ra [15:0] $end
$var reg 1 -' dref $end
$upscope $end
$upscope $end
$scope module TESTBED $end
$scope module u_WUPR $end
$upscope $end
$scope module I_PATTERN $end
$upscope $end
$upscope $end
$enddefinitions $end
$dumpvars
0!
x-'
0"
0$
0(
x0
x@
x`
xB!
xd"
xJ%
xK%
xe"
xL%
xM%
xC!
xf"
xN%
xO%
xg"
xP%
xQ%
xa
xD!
xh"
xR%
xS%
xi"
xT%
xU%
xE!
xj"
xV%
xW%
xk"
xX%
xY%
xA
xb
xF!
xl"
xZ%
x[%
xm"
x\%
x]%
xG!
xn"
x^%
x_%
xo"
x`%
xa%
xc
xH!
xp"
xb%
xc%
xq"
xd%
xe%
xI!
xr"
xf%
xg%
xs"
xh%
xi%
x1
xB
xd
xJ!
xt"
xj%
xk%
xu"
xl%
xm%
xK!
xv"
xn%
xo%
xw"
xp%
xq%
xe
xL!
xx"
xr%
xs%
xy"
xt%
xu%
xM!
xz"
xv%
xw%
x{"
xx%
xy%
xC
xf
xN!
x|"
xz%
x{%
x}"
x|%
x}%
xO!
x~"
x~%
x!&
x!#
x"&
x#&
xg
xP!
x"#
x$&
x%&
x##
x&&
x'&
xQ!
x$#
x(&
x)&
x%#
x*&
x+&
0)
x2
xD
xh
xR!
x&#
x,&
x-&
x'#
x.&
x/&
xS!
x(#
x0&
x1&
x)#
x2&
x3&
xi
xT!
x*#
x4&
x5&
x+#
x6&
x7&
xU!
x,#
x8&
x9&
x-#
x:&
x;&
xE
xj
xV!
x.#
x<&
x=&
x/#
x>&
x?&
xW!
x0#
x@&
xA&
x1#
xB&
xC&
xk
xX!
x2#
xD&
xE&
x3#
xF&
xG&
xY!
x4#
xH&
xI&
x5#
xJ&
xK&
x3
xF
xl
xZ!
x6#
xL&
xM&
x7#
xN&
xO&
x[!
x8#
xP&
xQ&
x9#
xR&
xS&
xm
x\!
x:#
xT&
xU&
x;#
xV&
xW&
x]!
x<#
xX&
xY&
x=#
xZ&
x[&
xG
xn
x^!
x>#
x\&
x]&
x?#
x^&
x_&
x_!
x@#
x`&
xa&
xA#
xb&
xc&
xo
x`!
xB#
xd&
xe&
xC#
xf&
xg&
xa!
xD#
xh&
xi&
xE#
xj&
xk&
b0000000000000000 %
0*
x4
xH
xp
xb!
xF#
xl&
xm&
xG#
xn&
xo&
xc!
xH#
xp&
xq&
xI#
xr&
xs&
xq
xd!
xJ#
xt&
xu&
xK#
xv&
xw&
xe!
xL#
xx&
xy&
xM#
xz&
x{&
xI
xr
xf!
xN#
x|&
x}&
xO#
x~&
x!'
xg!
xP#
x"'
x#'
xQ#
x$'
bxxxx %'
xs
xh!
xR#
bxxxxxxxxxxxx &'
bxxxxxxxxxxxxxxxxxxxxxxxxxxxxxxxxxxxxxxxxxxxxxxxxxxxxxxxxxxxxxxxxxxxxxxxxxxxxxxxxxxxxxxxxxxxxxxxxxxxxxxxxxxxxxxxxxxxxxxxxxxxxxxxxxxxxxxxxxxxxxxxxxxxxxxxxxxxxxxxxxxxxxxxxxxxxxxxxxxxxxxxxxxxxxxxx ''
xS#
0('
0)'
xi!
xT#
0*'
0+'
xU#
b0000000000000000 ,'
x5
xJ
xt
xj!
xV#
xW#
xk!
xX#
xY#
xu
xl!
xZ#
x[#
xm!
x\#
x]#
xK
xv
xn!
x^#
x_#
xo!
x`#
xa#
xw
xp!
xb#
xc#
xq!
xd#
xe#
0+
x6
xL
xx
xr!
xf#
xg#
xs!
xh#
xi#
xy
xt!
xj#
xk#
xu!
xl#
xm#
xM
xz
xv!
xn#
xo#
xw!
xp#
xq#
x{
xx!
xr#
xs#
xy!
xt#
xu#
x7
xN
x|
xz!
xv#
xw#
x{!
xx#
xy#
x}
x|!
xz#
x{#
x}!
x|#
x}#
xO
x~
x~!
x~#
x!$
x!"
x"$
x#$
x!!
x""
x$$
x%$
x#"
x&$
x'$
0#
x&
x,
x8
xP
x"!
x$"
x($
x)$
x%"
x*$
x+$
x#!
x&"
x,$
x-$
x'"
x.$
x/$
xQ
x$!
x("
x0$
x1$
x)"
x2$
x3$
x%!
x*"
x4$
x5$
x+"
x6$
x7$
x9
xR
x&!
x,"
x8$
x9$
x-"
x:$
x;$
x'!
x."
x<$
x=$
x/"
x>$
x?$
xS
x(!
x0"
x@$
xA$
x1"
xB$
xC$
x)!
x2"
xD$
xE$
x3"
xF$
xG$
x-
x:
xT
x*!
x4"
xH$
xI$
x5"
xJ$
xK$
x+!
x6"
xL$
xM$
x7"
xN$
xO$
xU
x,!
x8"
xP$
xQ$
x9"
xR$
xS$
x-!
x:"
xT$
xU$
x;"
xV$
xW$
x;
xV
x.!
x<"
xX$
xY$
x="
xZ$
x[$
x/!
x>"
x\$
x]$
x?"
x^$
x_$
xW
x0!
x@"
x`$
xa$
xA"
xb$
xc$
x1!
xB"
xd$
xe$
xC"
xf$
xg$
b0000000000000000 '
x.
x<
xX
x2!
xD"
xh$
xi$
xE"
xj$
xk$
x3!
xF"
xl$
xm$
xG"
xn$
xo$
xY
x4!
xH"
xp$
xq$
xI"
xr$
xs$
x5!
xJ"
xt$
xu$
xK"
xv$
xw$
x=
xZ
x6!
xL"
xx$
xy$
xM"
xz$
x{$
x7!
xN"
x|$
x}$
xO"
x~$
x!%
x[
x8!
xP"
x"%
x#%
xQ"
x$%
x%%
x9!
xR"
x&%
x'%
xS"
x(%
x)%
x/
x>
x\
x:!
xT"
x*%
x+%
xU"
x,%
x-%
x;!
xV"
x.%
x/%
xW"
x0%
x1%
x]
x<!
xX"
x2%
x3%
xY"
x4%
x5%
x=!
xZ"
x6%
x7%
x["
x8%
x9%
x?
x^
x>!
x\"
x:%
x;%
x]"
x<%
x=%
x?!
x^"
x>%
x?%
x_"
x@%
xA%
x_
x@!
x`"
xB%
xC%
xa"
xD%
xE%
xA!
xb"
xF%
xG%
xc"
xH%
xI%
$end
#28
1y&
#66
1N"
#67
1A"
1C"
1E"
#75
0U&
1"'
#79
0H&
#94
0K"
#96
0M"
#97
0L"
#98
0B"
#99
0K&
0M&
0X&
0[&
0^&
0g&
0a&
0d&
0q&
0t&
0w&
0n&
#100
0k&
bxxxx0x0xxxxx &'
#101
bxxxxxxxxxxxxxxxxxxxxxxxxxxxxxxxxxxxxxxxxxxxxxxxxxxxxxxxxxxxxxxxxxxxxxxx0xxxxxxxxxxxxxxxxxxxxxxxxxxxxxxxxxxxxxxxxxxxxxxxxxxxxxxxxxxxxxxxxxxxxxxxxxxxxxxxxxx0xxxxxxxxxxxxxxxxxxxxxxxxxxxxxxxxxxxxx ''
bxxxx0x0xxx0x &'
0O"
#102
b0x0x0x0x0x000x0x0x0x0x00xx0x0x0x0x000x0x0x0x0x000xxx0x0x0x000x0x0x0x0x000x0xxx0x0x000x0x0x0x0x000x0x0xxx0x000x0x0x0x0x000x0x0x0xxx000x0x0x0x0x00000000x000000000000000x00x0x0x0x0x00000000x00000 ''
b000x0000x000 &'
#103
b0x0000000000000000000000x000000000000x000000000000x0000000000000000000000000x00000000x0000000000000000x000000000000000000x000000x000000000000000000000x000000000000000x0000000000x00000000x00000 ''
b00000000x000 &'
#106
1T&
1G&
#107
bxx0x %'
b000000000000 &'
0J"
#108
bxx00 %'
#109
0#'
#110
b0x0000000000000000000000x000000000000x000000000000x0000000000000000000000000x00000000x0000000000000000x000000000000000000x000000x0000000000000000000000000000000000000x0000000000x00000000x00000 ''
#111
1w"
1i&
1S&
1P&
1Q&
#112
1F&
b000000000000000000000000000000000000000000000000000000000000000000000000000000000000000000000000000000000000000000000000000000000000000000000000000000000000000000000000000000000000000000000000 ''
1,$
1K$
1^"
#113
1[%
1g#
1U$
1a"
#114
1h"
1j"
1q"
1$#
1s"
1%#
1&#
1)#
1*#
1Y#
1X#
1^#
1_#
1d#
1e#
1i#
1c#
1j#
1m#
1r#
1t#
1y#
1x#
1#$
1*$
1)$
1W#
1C$
1A$
1H$
1I$
1v$
1{$
1y$
1z$
#115
1g"
1r"
1p"
1v"
1{"
1!#
1##
1'#
1-#
1.#
1/#
14#
11#
12#
13#
1D#
17#
18#
19#
1:#
1;#
1<#
1=#
1>#
1A#
1B#
1C#
1G#
1H#
1E#
1F#
1L#
1M#
1N#
1O#
1Q#
1R#
1V#
1U#
1b#
1q#
1p#
1"$
1!$
16$
1@$
1t$
1x$
0R"
1K#
#116
1M%
1J%
1N%
1O%
1U%
1T%
1R%
1V%
1Z%
1l%
1j%
1k%
1n%
1o%
1|%
1z%
1~%
1!&
1"&
1,&
10&
12&
1$'
1I%
1[$
1Y$
1]$
1o$
1H"
1w$
1!%
1%%
1#%
1-%
1+%
1/%
15%
16%
17%
19%
1:%
1;%
1?%
1A%
#117
1L%
1S%
1}%
1y%
1/&
1+&
1-&
11&
1H%
1Z$
1c$
1f$
1l$
1n$
1&%
1~$
1"%
1$%
1*%
1,%
1.%
1W"
10%
18%
1>%
1@%
1B%
1D%
#118
10#
1e$
1d$
1g$
1G"
1Y"
1["
#119
1`"
